<?xml version="1.0" encoding="UTF-8"?>
<svg xmlns="http://www.w3.org/2000/svg" xmlns:xlink="http://www.w3.org/1999/xlink" width="25pt" height="25pt" viewBox="0 0 25 25" version="1.1">
<defs>
<clipPath id="clip1">
  <path d="M 0 0 L 23.535156 0 L 23.535156 23.535156 L 0 23.535156 Z M 0 0 "/>
</clipPath>
<clipPath id="clip2">
  <path d="M 15.777344 0.75 L 23.273438 0.75 L 23.273438 8.25 C 23.273438 16.546875 16.546875 23.273438 8.25 23.273438 L 0.75 23.273438 L 0.75 15.777344 C 0.75 7.476562 7.476562 0.75 15.777344 0.75 Z M 15.777344 0.75 "/>
</clipPath>
<filter id="alpha" filterUnits="objectBoundingBox" x="0%" y="0%" width="100%" height="100%">
  <feColorMatrix type="matrix" in="SourceGraphic" values="0 0 0 0 1 0 0 0 0 1 0 0 0 0 1 0 0 0 1 0"/>
</filter>
<image id="image13" width="25" height="25" xlink:href="data:image/png;base64,iVBORw0KGgoAAAANSUhEUgAAABkAAAAZCAYAAADE6YVjAAAABmJLR0QA/wD/AP+gvaeTAAAAYElEQVRIiWNgoANgJKQgy8iItenJEzZSDRZnZf339+nT7wwMDAxM5LiMVDBqyaglo5aMWkJlwEKMIm9m5v+UWEKwFGb794/xn6MjM8kmi4r+/7NmzV+yXDUKRsEooA0AAETEEW+wvvx/AAAAAElFTkSuQmCC"/>
<mask id="mask0">
  <g filter="url(#alpha)">
<use xlink:href="#image13"/>
  </g>
</mask>
<clipPath id="clip3">
  <rect width="25" height="25"/>
</clipPath>
<g id="surface15" clip-path="url(#clip3)">
<path style=" stroke:none;fill-rule:nonzero;fill:rgb(0%,0%,0%);fill-opacity:1;" d="M 8.257812 0.75 L 23.273438 0.75 L 23.273438 15.769531 L 8.257812 15.769531 Z M 8.257812 0.75 "/>
</g>
<image id="image22" width="25" height="25" xlink:href="data:image/png;base64,iVBORw0KGgoAAAANSUhEUgAAABkAAAAZCAYAAADE6YVjAAAABmJLR0QA/wD/AP+gvaeTAAAAMklEQVRIiWN8IybGzUAjIPLq1VcGBgYGJlpZgAxGLRm1ZNSSUUtGLRm1ZNSSUUtGAQMAYvEELjt/gVQAAAAASUVORK5CYII="/>
<mask id="mask1">
  <g filter="url(#alpha)">
<use xlink:href="#image22"/>
  </g>
</mask>
<clipPath id="clip4">
  <rect width="25" height="25"/>
</clipPath>
<g id="surface24" clip-path="url(#clip4)">
<path style=" stroke:none;fill-rule:nonzero;fill:rgb(0%,0%,0%);fill-opacity:1;" d="M -7.621094 15.769531 L 15.726562 -7.582031 L 23.65625 0.351562 L 0.3125 23.695312 Z M -7.621094 15.769531 "/>
</g>
<image id="image31" width="25" height="25" xlink:href="data:image/png;base64,iVBORw0KGgoAAAANSUhEUgAAABkAAAAZCAYAAADE6YVjAAAABmJLR0QA/wD/AP+gvaeTAAAAVElEQVRIiWNgoANgpNSAZnl5jszv35nRxcVZWf/9ffr0OwMDAwMTpZYQA0YtGXyWUJy6mJWV2Rl+/MBwbAMLy//ahw9/UGr+KBgFo2AUjIJRQFcAAO/FDw3eBnulAAAAAElFTkSuQmCC"/>
<mask id="mask2">
  <g filter="url(#alpha)">
<use xlink:href="#image31"/>
  </g>
</mask>
<clipPath id="clip5">
  <rect width="25" height="25"/>
</clipPath>
<g id="surface33" clip-path="url(#clip5)">
<path style=" stroke:none;fill-rule:nonzero;fill:rgb(0%,0%,0%);fill-opacity:1;" d="M 15.769531 0.75 L 23.273438 0.75 L 23.273438 8.257812 L 15.769531 8.257812 Z M 15.769531 0.75 "/>
</g>
</defs>
<g id="surface4">
<path style=" stroke:none;fill-rule:nonzero;fill:rgb(46.666667%,86.666667%,46.666667%);fill-opacity:1;" d="M 8.25 23.273438 L 0.75 23.273438 L 0.75 15.777344 C 0.75 7.476562 7.476562 0.75 15.777344 0.75 L 23.273438 0.75 L 23.273438 8.25 C 23.273438 16.546875 16.546875 23.273438 8.25 23.273438 Z M 8.25 23.273438 "/>
<g clip-path="url(#clip1)" clip-rule="nonzero">
<g clip-path="url(#clip2)" clip-rule="nonzero">
<use xlink:href="#surface15" mask="url(#mask0)"/>
<use xlink:href="#surface24" mask="url(#mask1)"/>
<use xlink:href="#surface33" mask="url(#mask2)"/>
</g>
</g>
</g>
</svg>
