{
    "login_head": "Log in to your account",
    "email": "Email",
    "password": "Password",
    "keep_me": "Keep me signed in",
    "login": "Log in",
    "forgot_password": "Forgot password",
    "faq": "Frequently asked questions",
    "register_message": "You do not have an account? <a href='/int/register'>Create a user account now</a>.",
    "required_email": "Email is required",
    "incorrect_email": "E-mail should be a valid address",
    "maxlength_email": "The e-mail can not be longer than 50 characters",
    "required_password": "Password is required",
    "minlength_password": "The password must be at least 6 characters long",
    "user_notexists": "User Credentials doesn't Match or user doesn't exist.",
    "user_notverified": "User Is Not Verified",
    "error_something_wrong": "Something went wrong! Please try again later.",
    "register_head": "Create your new account",
    "register_title": "It takes just 30 seconds",
    "name": "Name",
    "confirm_password": "Confirm password",
    "company_name": "Company name",
    "already_account": "You already have an account? You can just <a href='/int/login'> log in </a>.",
    "i_agree": "I have read and agree to the <a target='_blank' href='https://agricontrol.app/datenschutz.html'>privacy policy </a> and <a target='_blank' href='https://agricontrol.app/nutzungsbedingungen.html'>terms & conditions</a>.",
    "thanks_confirm_email": "Thanks! Please confirm your email",
    "confirmation_email_sent_message": "A confirmation Email has been sent to {{email}}. Click on the confirmation link in the email to activate your account. If you haven't received a mail click on ",
    "resend": "Resend",
    "forgot_password_head": "Forgot your password?",
    "forgot_password_title": "Nothing to worry, we got you! Let's get you a new password.",
    "forgot_input_placeholder": "Enter your email",
    "reset_password": "Reset password",
    "forgot_success_message": "A message is on its way to you",
    "email_not_exists": "Email Id Not Exist.",
    "set_password": "Set new password",
    "change_password": "Change password",
    "download_new_export": "Download new export as PDF",
    "download_past_export": "Download past exports as PDF",
    "field_to_be_exported": "Fields to be exported",
    "time_period_to_be_exported": "Time period to be exported",
    "standard": "Standard",
    "individual": "Individual",
    "the_last_complete_seven": "The last complete 7 years",
    "start_date": "Start date",
    "to": "To",
    "end_date": "End date",
    "tabular_export": "Tabular export",
    "graphic_export": "Graphic export",
    "export_error_message": "Please select fields to be exported and time period to be exported",
    "no_exports": "No Export Found!!",
    "dashboard": "Dashboard",
    "export": "Export",
    "profile": "Profile",
    "crops": "Crops",
    "faq_short": "FAQ",
    "logout": "Log out",
    "profile_picture": "Profile picture",
    "max_file_size_message": "* File  cannot exceed 3mb in size and 2000 by 2000 pixels",
    "subscription_start": "Subscription start date",
    "subscription_end": "Subscription end date",
    "trial_start": "Trial start date",
    "trial_end": "Trial end date",
    "language": "Language",
    "phone_number": "Phone number",
    "address": "Address",
    "zip_code": "ZIP code",
    "city": "City",
    "country": "Country",
    "save": "Save",
    "field_required": "{{ fieldname }} is required",
    "field_max_length": "{{ fieldname }} must be less than {{length}} characters",
    "confirm_password_max_length" : "Confirm password must be less than 6 characters",
    "profile_update_success": "Profile updated successfully",
    "new_password": "New password",
    "confirm_new_password": "Confirm new password",
    "complete_your_info_message": "You have to complete your address information before you can buy a license.",
    "postal_pattern" : "Postal Code should be digit",
    "city_pattern" : "{{fieldname}} should contains only alpha characters and spaces",
    "user_delete_confirm" : "Do You Really Want To Delete This User?",
    "valid_file_extenstion" : "Please upload file having extensions .jpeg/.jpg/.png/.gif only.",
    "password_not_match" : "Password and confirmation doesn’t match.",
    "user_list": "User List",
    "add_new_member" : "Add new member",
    "member_name" : "Member name",
    "status" : "Status",
    "action" : "Action",
    "userId" : "UserID",
    "active" : "Active",
    "deactive" : "Deactive",
    "no_data_found" : "No data found",
    "field_overview" : "Fields overview",
    "show_archived_field" : "Show archived fields",
    "select_crop" : "Select crop",
    "new_culture" : "New culture",
    "reset_all_filters" : "Reset all filters",
    "edit_field" : "Edit field",
    "field_info" : "Field informations",
    "archive_field" : "Archive field",
    "unarchive_field" : "Unarchive field",
    "total_size" : "Total size",
    "number_of_field" : "Number of fields",
    "swapped_cultures" : "Swapped cultures",
    "size_per_crop" : "Size per crop",
    "show_more" : "Show more",
    "show_less" : "Show less",
    "footer_message" : "Made with love and a sprinkle of sunshine ",
    "term_of_service" : "Terms of service",
    "site_notice" : "Site notice",
    "privacy" : "Privacy",
    "back" : "Back", 
    "addField_first_message" : "No Field is present to show, Please Add Field First.",
    "rule_break" : "Crop rotation rule broken",
    "jan" : "Jan",
    "feb" : "Feb",
    "mar" : "Mar",
    "apr" : "Apr",
    "may" : "May",
    "jun" : "Jun",
    "july" : "Jul",
    "aug" : "Aug",
    "sep" : "Sept",
    "oct" : "Oct",
    "nov" : "Nov",
    "dec" : "Dec",
    "date_from_greater" : "Date From should be less than Date To.",
    "to_date_greater" : "To date should be greater than From date",
    "swapped_with_required" : "Swapped With is required",
    "echo_size_required" : "Eco Size is required",
    "crop_rotation_break_message" : "Crop rotation rule is broken! Do you still want to add this culture?",
    "archived_message" : "Do you really want to archive this field?",
    "unarchived_message" : "Do You Really Want To Unarchive This Field?",
    "archived_success" : "Archived Successfully",
    "unarchived_success" : "Unarchived Successfully",
    "minimum_one_year_data" : "Minimum one year data can be shown.",
    "maximum_seven_year" : "Maximum seven year data can be shown.",
    "crop_rotation_rule_violated" : "Crop rotation rule violated",
    "crop_rotation_rule_broken" : "Crop rotation rule broken",
    "swapped_with" : "Swapped with",
    "duration" : "Duration",
    "from" : "From",
    "before" : "Before",
    "create_new_field" : "Create new field",
    "field_name" : "Field name",
    "field_size" : "Field size",
    "in_a_are" : "in 'a' (are)",
    "echo_area" : "Eco area?",
    "echo_area_size" : "Eco area size",
    "notes" : "Notes",
    "field_should_be_number" : "The {{ fieldname }} should be a number",
    "echo_size_exceeded" : "The Eco size was exceeded by the field size.",
    "add_new_culture" : "Add new culture",
    "edit_culture" : "Edit culture",
    "delicate" : "Delicate",
    "plant_variety" : "Plant veriety",
    "cultivated_are" : "Cultivated area",
    "remaining_spaced" : "Remaining space:",
    "swapped_with_person" : "Swapped with (to): (Person Name)",
    "warning" : "Warning",
    "delete" : "Delete",
    "culture_duration" : "Culuture duration",
    "field_details" : "Field details",
    "swap":"Swapped?",
    "upgrade_now":"Upgrade Now!",
    "purchase_done":"Thank you for your purchase! We'll send you an invoice in the next few days. If you have any questions, please don't hesitate to contact us under <a href='mailto:help@agricontrol.ch'> help@agricontrol.ch </a>",
    "info_correct":"Is this information correct?",
    "want_to_modify":"No, I want to modify",
    "buy_license":"Yes, I want to buy the license",
    "user_Suggestion":"User Suggestion",
    "write_email":"Write us an Email",
    "probation_ends":"Your trial period ends in {{days}} Days. If you want to continue using Agricontrol, Please Upgrade Now.",
    "feedback":"You've just started using Agricontrol. How do you like it? Anything you find difficult? We'd like to help! You'll receive an answer as soon as possible.",
    "building_No.":"Building No./Street Name",
    "pay_option" : "Payment Options",
    "invoice_email" : "Pdf invoice per email",
    "payment_slip" : "Payment slip sent per e-mail",
    "accept_term_message" : "I have read and agree to the <a href='https://agricontrol.app/nutzungsbedingungen.html' target='_blank'> privacy policy </a> and <a href='https://agricontrol.app/datenschutz.html' target='_blank'> terms & conditions </a>",
    "export_report_generated" : "Export Report Generated",
    "close": "Close",
    "view" : "View",
    "alert_trial_ended": "Your trial period has ended. If you want to continue using Agricontrol, Please Upgrade Now.",
    "upgrade_subscription" : "Upgrade Subscription",
    "eco_size" : "Eco size",
    "acre" : "Acre",
    "crop_setting" : "Crop Setting",
    "submit" : "Submit",
    "in" : "in",
    "yes":"Yes",
    "no":"No",
    "alert":"Warning",
    "tabular": "Tabular",
    "graphic": "Graphic",
    "cultivated_size_exceed": "The size of the cultivated area is exceeded by the field size.",
    "mail_sent": "Mail sent succesfully",
    "user_delete": "User delete successfully",
    "reset_password_success" : "Password updated successfully",
    "email_confirmed_success" : "Your Email Address is Confirmed Succesfully",
    "email_already" : "Email already registered",
    "data_not_added" : "Data not added",
    "admin_notify_success" : "Admin notify successfully",
    "admin_notify_fail" : "Admin notification failed",
    "user_delete_fail": "User not deleted",
    "registration_success" : "User added successfully",
    "registration_mail_fail" : "User added successfully and mail not sent",
    "email_available" : "Email is Available",
    "invalid_url" : "Invalid URL",
    "logout_msg" : "User logged out successfully",
    "old_password_wrong" : "Old password is wrong",
    "contact_to_admin" : "Something went wrong! Please contact to administrator",
    "valid_token" : "valid token",
    "unauthenticated" : "Unauthenticated",
    "update_success" : "succesfully updated",
    "update_fail" : "Not updated",
    "delete_success" : "Deleted Successfully",
    "plan_upgrade_success" : "Plan Upgraded Successfully",
    "color_change_success" : "Color changed successfully",
    "color_change_fail" : "Color not changed",
    "added_success" : "Added successfully",
    "added_fail" : "Not added",
    "fiels_size_error" : "Field Size should be greater than its cultures size",
    "success" : "success",
    "archieved_success" : "Field archieved successfully",
    "archieved_fail" : "Field not archieved",
    "no_file" : "Please choose a file to upload",
    "masters": "Masters",
    "language_setting": "Language Setting",
    "nodata" : "No data available",
    "already_registerd_email" : "This mail address is already registered"
}